{
  "home": "Home",
  "classes": "Classes",
  "schedule": "Schedule",
  "profile": "Profile",
  "card": "Use Card",
  "more": "More",
  "read_card": "Please point your camera towards your gym card, so it can be scanned",
  "language": "Change language",
  "theming": "Change application colors",
  "profile_open_card": "Please open the tab 'Use card' so we can identify you.",
  "associate_number": "Associate Number",
  "register": "SIGN UP" ,
  "login": "SIGN IN" ,
  "password_too_short": "Please insert a password with at least 4 characters." ,
  "no_account": "Don't have an account? [b]Sign Up![/b]" ,
  "already_have_account": "Already have an account? Please [b]Sign In[/b]." ,
  "sms_code": "Please insert the 4 digit code that you have received via SMS." ,
  "code_int": "The confirmation code should be 4 numbers, other characters are not allowed." ,
  "connection_error": "The server is not available." ,
  "resend_button": "Resend Code" ,
  "slots": "Slots: " ,
  "monday": "Monday" ,
  "tuesday": "Tuesday" ,
  "wednesday": "Wednesday" ,
  "thursday": "Thursday" ,
  "friday": "Friday" ,
  "saturday": "Saturday" ,
  "sunday": "Sunday" ,
  "change_theme": "Change Theme" ,
  "color": "Color" ,
  "style": "Style" ,
  "close": "Close" ,
  "enroll": "Enroll" ,
  "disenroll": "Disenroll"
}